<?xml version="1.0" encoding="utf-8"?>
<!-- Generator: Adobe Illustrator 16.0.4, SVG Export Plug-In . SVG Version: 6.00 Build 0)  -->
<!DOCTYPE svg PUBLIC "-//W3C//DTD SVG 1.1//EN" "http://www.w3.org/Graphics/SVG/1.1/DTD/svg11.dtd">
<svg version="1.1" id="Ebene_1" xmlns="http://www.w3.org/2000/svg" xmlns:xlink="http://www.w3.org/1999/xlink" x="0px" y="0px"
	 width="880.455px" height="241.488px" viewBox="0 0 880.455 241.488" enable-background="new 0 0 880.455 241.488"
	 xml:space="preserve">
<g>
	<g>
		<g>
			<rect x="640.548" y="156.704" fill="#EEEEEE" width="40.839" height="61.295"/>
			<path fill="#EEEEEE" d="M859.716,88.39c-3.814-8.761-9.576-15.403-17.292-19.926c-7.708-4.523-17.144-6.787-28.279-6.787
				c-8.764,0-17.001,2-24.717,6c-7.714,4-16.104,10.049-22.773,18.143c-4.57-8.094-9.225-14.143-16.366-18.143s-15.572-6-25.283-6
				c-18.285,0-30.358,8.393-43.593,24.486V65.709h-40.863v72.844h40.358c0.203-12.199,0.96-23.7,2.873-29.308
				c2.145-6.285,5.69-11.093,10.641-14.429c4.949-3.331,10.522-5,16.717-5c4.967,0,10.231,3.032,12.181,5.533l64.18-0.038
				c3.874-1.967,8.148-4.736,14.781-4.736c7.715,0,14.233,4.295,17.289,10.385c2.635,5.252,2.772,14.097,2.772,29.144v60.746h41.088
				v-71.032C863.428,105.342,862.475,94.868,859.716,88.39z"/>
		</g>
		<rect x="822.456" y="208.993" fill="#EEEEEE" width="40.972" height="9.054"/>
		<path fill="#EEEEEE" d="M732.258,202.133H772.4v-58.176c0-13.686,1.019-23.814,3.031-30.464h-43.882
			c0.466,5.021,0.709,11.71,0.709,20.18V202.133z"/>
	</g>
	<g>
		<polygon fill="#EEEEEE" points="72.01,49.821 72.01,13.257 30.925,36.685 30.925,49.821 		"/>
		<g>
			<polygon fill="#EEEEEE" points="31.204,156.598 71.915,156.598 71.915,95.192 101.494,95.192 101.494,65.689 13.034,65.689 
				13.034,95.28 31.204,95.28 			"/>
			<path fill="#EEEEEE" d="M99.863,188.727c-6.819,3.602-10.495,5.022-14.21,5.022c-2.667,0-7.427,0.065-9.283-1.271
				c-1.857-1.332-3.305-4.022-3.827-6.071c-0.256-0.998-0.4-8.138-0.531-11.597l-41.428,0.15c0.164,8.758,0.562,13.68,1.2,17.153
				c1.048,6.569,2.929,12.967,5.643,16.825c2.715,3.856,6.976,6.998,12.785,9.426c5.808,2.428,12.333,3.986,19.572,3.986
				c11.808,0,24.524-0.973,33.857-4.969L99.863,188.727z"/>
		</g>
	</g>
	<g>
		<rect x="467.586" y="79.342" fill="#EEEEEE" width="40.917" height="36.472"/>
		<g>
			<path fill="#EEEEEE" d="M542.095,190.802c-2.031,0.38-7.578,1.854-9.752,1.854c-6.005,0-10.956-1.403-14.857-4.213
				c-3.909-2.807-6.596-6.617-8.075-11.43c-1.476-4.807-0.817-19.144-0.817-40.478v-2.58h-41.178v28.864
				c0,14.289,1.255,26.246,4.88,34.339c3.616,8.097,9.474,14.383,17.566,18.854c8.097,4.478,17.238,6.715,27.429,6.715
				c10.237,0,19.393-3.812,28.051-9.084c8.847-5.396,11.463-10.139,17.715-17.908v22.285l41.071-0.006v-27.215L542.095,190.802
				L542.095,190.802z"/>
			<path fill="#EEEEEE" d="M604.125,172.66V79.342h-40.832v51.48c0,21.713-0.995,35.354-2.996,40.929
				c-0.113,0.313-0.373,0.601-0.498,0.908L604.125,172.66L604.125,172.66z"/>
		</g>
	</g>
	<g>
		<path fill="#EEEEEE" d="M203.935,113.52v105.013h40.744v-73.71c0-14.459,0.713-25.001,2.824-31.303H203.935z"/>
		<g>
			<rect x="294.841" y="174.811" fill="#EEEEEE" width="40.74" height="43.723"/>
			<path fill="#EEEEEE" d="M423.185,90.111c-3.81-8.761-9.354-17.549-17.064-22.074c-7.714-4.523-17.143-6.786-28.284-6.786
				c-8.764,0-17,2-24.714,5.999c-7.716,4-15.128,9.616-21.791,17.711c-4.571-8.095-10.171-13.71-17.313-17.711
				c-7.143-4-15.57-5.999-25.284-5.999c-18.285,0-30.864,10.194-44.102,26.289V74.998h-40.61v20.299l55.389,0.016
				c2.983-1.611,7.786-4.389,13.168-4.548c7.363-0.218,12.61,2.232,15.442,4.548c3.602,2.941,4.927,6.921,5.74,11.513
				c0.788,4.449,1.199,13.811,1.199,28.568v21.264h41.086V145.68c0-14.281-0.427-28.648,1.767-35.269
				c2.189-6.618,5.761-11.643,10.714-15.071c4.951-3.429,10.235-4.8,15.855-4.8c7.714,0,14.477,4.365,18.19,10.078
				c2.76,4.382,3.223,16.029,3.223,31.075v70.311l41.018,0.13v-80.596C426.812,107.063,425.945,96.588,423.185,90.111z"/>
		</g>
	</g>
	<g>
		<rect x="126.599" y="15.729" fill="#EEEEEE" width="40.911" height="29.37"/>
		<rect x="126.599" y="65.796" fill="#EEEEEE" width="40.911" height="136.337"/>
	</g>
</g>
</svg>
